3000 0.0
6225 0.0151
6232 0.02158
6235 0.02388
6240 0.03076
6245 0.0389
6250 0.05015
6255 0.06577
6260 0.08825
6262 0.09851
6265 0.1176
6270 0.1618
6275 0.2272
6280 0.3269
6285 0.4886
6290 0.7548
6295 1.202
6300 2.004
6305 3.473
6310 6.196
6313 9.467
6315 11.08
6320 18.79
6325 29.01
6330 39.23
6335 47.42
6340 52.98
6345 55.45
6350 55.83
6355 55.63
6360 55.57
6365 55.67
6370 55.75
6374 55.75
6375 55.74
6380 55.54
6384 55.26
6385 55.22
6390 54.82
6395 54.51
6400 54.36
6405 54.43
6410 54.63
6420 54.75
6425 54.49
6430 53.98
6435 53.35
6440 52.69
6445 52.01
6450 51.38
6451 51.27
6455 50.81
6460 50.32
6465 49.92
6470 49.61
6475 49.35
6480 49.08
6485 48.74
6490 48.38
6495 48.09
6500 48.02
6505 48.15
6508 48.31
6510 48.45
6515 48.67
6515 48.65
6520 48.52
6525 47.74
6530 46.08
6535 43.5
6540 40.19
6545 36.75
6550 33.5
6555 30.64
6560 28.45
6565 27.36
6570 27.87
6575 30.46
6580 35.32
6585 40.7
6586 41.41
6590 43.15
6595 39.19
6600 29.15
6605 17.65
6610 9.1
6615 4.592
6620 2.448
6621 2.18
6625 1.418
6630 0.8769
6635 0.5761
6640 0.3942
6645 0.2782
6650 0.2039
6655 0.1544
6660 0.1193
6665 0.09402
6670 0.07623
6675 0.06304
6680 0.05216
6685 0.04415
6690 0.03891
6690 0.03843
6695 0.03272
6705 0.02474
12000 0.00