3000 0.0
4990 0.01719
5000 0.02582
5005 0.0331
5010 0.04039
5015 0.05032
5020 0.06422
5025 0.08209
5030 0.1066
5035 0.137
5040 0.1767
5041 0.1932
5045 0.2324
5050 0.3131
5055 0.4296
5060 0.6031
5065 0.8679
5070 1.268
5075 1.897
5080 2.881
5085 4.466
5090 7.096
5092 8.99
5095 11.29
5100 17.71
5105 26.31
5110 36.13
5112 40.8
5115 45.47
5120 52.57
5125 56.64
5130 57.99
5135 57.73
5140 56.96
5145 56.29
5150 56.01
5155 56.09
5160 56.47
5165 56.97
5170 57.54
5175 58.05
5180 58.43
5185 58.71
5187 58.77
5190 58.85
5195 58.9
5200 58.83
5205 58.72
5210 58.52
5215 58.29
5220 58.05
5225 57.7
5230 57.27
5235 56.62
5240 55.59
5245 53.8
5250 51.13
5255 47.47
5260 42.51
5265 36.31
5267 33.89
5268 32.11
5270 29.49
5275 22.75
5280 16.83
5285 12.04
5290 8.426
5295 5.886
5300 4.118
5305 2.891
5310 2.061
5315 1.475
5320 1.07
5325 0.7865
5330 0.5875
5335 0.447
5340 0.3445
5341 0.3246
5345 0.2666
5350 0.2093
5355 0.1646
5360 0.1313
5365 0.106
5370 0.08531
5375 0.07064
5380 0.05732
5385 0.04665
5390 0.03932
5395 0.03266
12000 0.0