3000 0.000
7200 0.01011
7211 0.01298
7220 0.01531
7235 0.02094
7245 0.02608
7246 0.02662
7255 0.03261
7265 0.03957
7270 0.04515
7275 0.05164
7280 0.05812
7285 0.06598
7285 0.06678
7290 0.07474
7295 0.08534
7300 0.0973
7305 0.1115
7310 0.1285
7315 0.1482
7320 0.1715
7325 0.1985
7330 0.2313
7335 0.2705
7340 0.3173
7345 0.3741
7350 0.4448
7355 0.5304
7357 0.574
7360 0.637
7365 0.7692
7370 0.9304
7375 1.138
7380 1.401
7385 1.731
7390 2.152
7395 2.696
7400 3.399
7405 4.256
7410 5.319
7415 6.66
7420 8.321
7425 10.5
7430 13.24
7430 13.3
7435 16.48
7440 20.22
7445 24.22
7450 28.23
7451 29.28
7455 31.86
7460 34.89
7465 37.2
7470 38.81
7475 39.86
7480 40.47
7485 40.76
7490 40.88
7495 40.91
7500 40.91
7505 40.86
7510 40.83
7515 40.76
7520 40.68
7521 40.66
7525 40.58
7530 40.43
7535 40.25
7540 40.07
7545 39.89
7550 39.73
7555 39.61
7560 39.55
7565 39.54
7570 39.59
7580 39.54
7585 39.26
7586 39.13
7590 38.61
7595 37.42
7600 35.53
7605 32.91
7610 29.6
7615 25.92
7620 22.18
7625 18.66
7626 17.91
7630 15.55
7635 12.62
7640 10.1
7645 8.013
7650 6.321
7655 4.997
7655 4.912
7660 3.961
7665 3.147
7670 2.514
7675 2.023
7680 1.646
7685 1.345
7690 1.105
7695 0.9151
7700 0.7589
7705 0.6351
7710 0.537
7713 0.4817
7715 0.4548
7720 0.3889
7725 0.3331
7730 0.2872
7735 0.2486
7740 0.2156
7745 0.1887
7750 0.1659
7755 0.1459
7760 0.1283
7765 0.114
7770 0.1008
7775 0.09049
7780 0.08018
7781 0.07924
7785 0.07225
7790 0.06435
7795 0.05802
7800 0.0525
7805 0.04738
7810 0.04344
7815 0.03951
7820 0.0356
7829 0.03019
7830 0.02974
7840 0.02544
7842 0.0246
7855 0.02001
7870 0.01615
12000 0.0