3195 0.0000
3200 0.01176
3208 0.01926
3217 0.02992
3225 0.04482
3232 0.06227
3233 0.06715
3242 0.09755
3250 0.1385
3258 0.1906
3267 0.2544
3272 0.3014
3275 0.3282
3283 0.4171
3292 0.5254
3300 0.665
3308 0.8326
3317 1.041
3325 1.296
3332 1.523
3333 1.575
3342 1.862
3350 2.146
3358 2.433
3367 2.757
3375 3.138
3383 3.604
3385 3.686
3392 4.134
3400 4.674
3400 4.674
3408 5.234
3417 5.787
3425 6.295
3430 6.591
3433 6.807
3442 7.312
3450 7.825
3450 7.849
3458 8.332
3467 8.842
3475 9.334
3483 9.821
3492 10.3
3492 10.3
3500 10.82
3508 11.36
3517 11.91
3525 12.42
3533 12.91
3542 13.31
3550 13.63
3551 13.65
3558 13.86
3563 13.97
3567 14.07
3575 14.31
3583 14.62
3592 15.02
3600 15.45
3600 15.45
3608 16.08
3617 16.62
3625 17.02
3628 17.1
3633 17.25
3642 17.37
3650 17.43
3658 17.51
3659 17.52
3667 17.69
3675 17.98
3683 18.38
3692 18.79
3700 19.13
3708 19.28
3717 19.2
3725 18.89
3733 18.43
3742 17.93
3749 17.53
3750 17.44
3758 17
3762 16.87
3767 16.67
3775 16.41
3783 16.16
3792 15.82
3800 15.3
3800 15.3
3808 14.5
3817 13.48
3825 12.31
3833 11.07
3842 9.841
3850 8.734
3858 7.733
3867 6.858
3871 6.456
3875 6.087
3883 5.397
3892 4.754
3900 4.14
3908 3.546
3917 2.97
3925 2.426
3933 1.933
3937 1.72
3942 1.503
3950 1.157
3958 0.8858
3961 0.8126
3967 0.6607
3975 0.4824
3983 0.3453
3992 0.2422
4000 0.1674
4005 0.000
