3000 0.00
5855 0.01645
5860 0.02498
5864 0.03452
5865 0.03746
5870 0.05782
5875 0.09263
5880 0.1498
5885 0.2502
5890 0.432
5895 0.7372
5900 1.236
5905 2.03
5906 2.334
5910 3.319
5915 5.444
5920 8.627
5925 13.15
5930 19.14
5935 26.36
5940 34.15
5945 41.43
5950 47.05
5955 50.25
5957 50.55
5960 50.96
5965 50.01
5970 48.43
5972 47.96
5975 47.04
5980 46.2
5985 46.02
5990 46.46
5995 47.42
6000 48.73
6005 50.36
6010 52.12
6015 53.89
6017 54.46
6020 55.63
6025 57.23
6030 58.56
6035 59.6
6040 60.28
6045 60.59
6050 60.58
6055 60.32
6060 59.86
6065 59.33
6067 59.14
6070 58.78
6074 58.38
6075 58.23
6080 57.74
6085 57.28
6090 56.86
6095 56.51
6105 56.24
6110 56.44
6115 56.84
6120 57.2
6125 57.13
6130 55.68
6135 51.92
6135 51.86
6140 45.04
6145 36.11
6150 26.54
6155 18.05
6160 11.6
6165 7.285
6170 4.532
6175 2.882
6180 1.866
6185 1.238
6190 0.8414
6195 0.5863
6200 0.4202
6200 0.418
6205 0.3075
6210 0.229
6215 0.1734
6220 0.1329
6225 0.1026
6230 0.08112
6232 0.07271
6235 0.06346
6240 0.05148
6245 0.04141
6250 0.03322
12000 0.0