3000 0.0
4455 0.01595
4465 0.02621
4468 0.03232
4470 0.0352
4475 0.04743
4480 0.06418
4485 0.08933
4490 0.1274
4495 0.1811
4500 0.2651
4500 0.2684
4501 0.2891
4505 0.4028
4510 0.6238
4515 1.001
4520 1.66
4525 2.853
4530 5.098
4535 9.198
4540 15.38
4540 15.92
4545 24.97
4550 34.67
4555 42.38
4560 46.21
4565 46.66
4568 46
4570 45.38
4575 44.11
4580 43.67
4585 44.17
4590 45.31
4595 46.9
4600 48.51
4605 50.04
4610 51.23
4614 51.94
4615 52.09
4620 52.75
4625 53.19
4627 53.32
4630 53.49
4635 53.73
4640 53.89
4641 53.9
4645 53.95
4650 53.77
4655 53.14
4660 51.59
4665 48.78
4670 44.43
4675 38.57
4679 32.66
4680 31.77
4685 24.94
4690 18.47
4695 13.19
4700 9.1
4705 6.192
4710 4.19
4715 2.859
4720 1.972
4721 1.881
4725 1.375
4730 0.968
4735 0.6971
4740 0.5052
4745 0.3716
4750 0.2775
4755 0.21
4760 0.1606
4765 0.1243
4768 0.1102
4770 0.09761
4775 0.07677
4780 0.06114
4785 0.04877
4790 0.03965
4795 0.03249
12000 0.0