4795 0.000
4800 0.04028
4805 0.0695
4809 0.1075
4810 0.1163
4815 0.1878
4820 0.286
4825 0.4085
4825 0.42
4830 0.6095
4835 0.8714
4840 1.218
4845 1.669
4850 2.244
4855 2.93
4860 3.744
4865 4.687
4870 5.724
4875 6.891
4877 7.277
4880 8.17
4885 9.525
4890 10.94
4895 12.39
4900 13.86
4905 15.35
4910 16.87
4915 18.39
4920 19.91
4925 21.43
4930 22.94
4935 24.45
4935 24.59
4940 25.97
4945 27.52
4948 28.27
4950 29
4955 30.48
4960 31.96
4965 33.44
4970 34.9
4975 36.35
4980 37.77
4985 39.17
4990 40.51
4995 41.81
5000 43.06
5005 44.23
5010 45.33
5015 46.33
5020 47.25
5025 48.07
5030 48.78
5035 49.38
5040 49.86
5041 49.98
5045 50.27
5050 50.63
5055 50.9
5060 51.11
5065 51.24
5070 51.34
5075 51.37
5080 51.39
5090 51.38
5092 51.38
5095 51.37
5100 51.4
5105 51.43
5110 51.49
5112 51.53
5115 51.57
5120 51.71
5125 51.86
5130 52.07
5135 52.28
5140 52.58
5145 52.86
5150 53.18
5155 53.54
5160 53.91
5165 54.31
5170 54.72
5175 55.13
5180 55.51
5185 55.9
5187 56.05
5190 56.26
5195 56.59
5200 56.87
5205 57.14
5210 57.36
5215 57.52
5220 57.65
5225 57.73
5230 57.76
5235 57.74
5240 57.68
5245 57.56
5250 57.43
5255 57.28
5260 57.1
5265 56.88
5267 56.81
5268 56.75
5270 56.66
5275 56.43
5280 56.21
5285 55.96
5290 55.71
5295 55.48
5300 55.26
5305 55.06
5310 54.87
5315 54.7
5320 54.55
5325 54.42
5330 54.31
5335 54.23
5340 54.16
5341 54.15
5345 54.11
5350 54.06
5355 54.04
5360 54.02
5365 54
5370 54.01
5380 54.03
5390 54.06
5395 54.07
5400 54.09
5408 54.08
5410 54.08
5415 54.08
5420 54.06
5425 54.04
5430 54.02
5435 53.95
5440 53.9
5445 53.83
5450 53.76
5453 53.7
5455 53.66
5460 53.56
5465 53.44
5470 53.32
5475 53.19
5480 53.05
5485 52.91
5490 52.73
5495 52.56
5500 52.37
5505 52.17
5510 51.97
5515 51.74
5520 51.52
5525 51.3
5530 51.06
5535 50.83
5540 50.56
5543 50.39
5545 50.31
5550 50.06
5555 49.8
5560 49.53
5565 49.29
5570 49
5575 48.74
5580 48.46
5585 48.18
5588 48.02
5590 47.92
5595 47.62
5600 47.35
5605 47.07
5610 46.79
5611 46.74
5615 46.48
5620 46.18
5625 45.87
5630 45.57
5635 45.25
5640 44.91
5645 44.59
5650 44.24
5655 43.87
5660 43.51
5662 43.38
5665 43.12
5670 42.75
5675 42.34
5680 41.94
5685 41.56
5690 41.17
5693 40.96
5695 40.76
5700 40.32
5705 39.85
5710 39.38
5710 39.33
5715 38.9
5720 38.43
5725 37.95
5730 37.47
5735 37
5740 36.52
5745 36.02
5750 35.54
5755 35.08
5760 34.6
5765 34.15
5770 33.69
5774 33.37
5775 33.24
5780 32.8
5785 32.35
5790 31.93
5795 31.52
5800 31.12
5805 30.74
5808 30.52
5810 30.38
5812 30.28
5815 30.06
5820 29.76
5825 29.48
5830 29.24
5835 29.01
5840 28.78
5845 28.54
5850 28.24
5855 27.81
5860 27.19
5864 26.5
5865 26.29
5870 25.06
5875 23.43
5880 21.42
5885 19.09
5890 16.52
5895 13.98
5900 11.66
5905 9.615
5906 9.182
5910 7.78
5915 6.128
5920 4.769
5925 3.676
5930 2.818
5935 2.157
5940 1.652
5945 1.275
5950 0.9911
5955 0.771
5957 0.7
5960 0.6027
5965 0.4718
5970 0.3717
5972 0.3464
5975 0.2964
5980 0.2369
5985 0.1905
5990 0.1539
5995 0.1251
6000 0.1029
6001 0.000
