3000 0.0000
3930 0.01604
3935 0.02861
3937 0.03874
3940 0.04917
3945 0.07995
3950 0.1195
3955 0.1712
3960 0.239
3961 0.2571
3965 0.3252
3970 0.4534
3975 0.6481
3980 0.9613
3985 1.466
3990 2.314
3995 3.725
4000 6.009
4003 8.36
4005 9.389
4010 13.99
4015 19.2
4020 23.76
4025 26.94
4026 27.15
4030 28.28
4035 28.22
4040 27.51
4045 26.81
4050 26.49
4055 26.69
4060 27.41
4065 28.55
4070 29.94
4075 31.43
4080 32.83
4085 34
4087 34.44
4090 34.9
4095 35.54
4100 35.96
4101 36.03
4105 36.27
4110 36.56
4115 36.87
4120 37.18
4125 37.48
4130 37.7
4135 37.79
4140 37.76
4145 37.62
4150 37.42
4155 37.26
4160 37.24
4165 37.43
4170 37.91
4175 38.67
4180 39.6
4182 40.08
4185 40.76
4190 42.07
4195 43.34
4200 44.45
4202 44.79
4205 45.2
4210 45.53
4215 45.44
4220 44.99
4225 44.39
4230 43.75
4235 43.25
4240 42.98
4245 43
4250 43.26
4255 43.72
4260 44.26
4270 44.69
4272 44.53
4275 44.24
4280 43.2
4285 41.44
4290 39.17
4295 36.47
4300 33.44
4303 31.76
4305 30.3
4310 27.09
4315 23.92
4320 20.84
4325 17.89
4330 15.19
4335 12.72
4340 10.53
4345 8.627
4350 6.98
4355 5.627
4360 4.527
4365 3.627
4370 2.912
4375 2.332
4380 1.871
4385 1.511
4390 1.222
4391 1.188
4393 1.094
4395 1.012
4400 0.8425
4405 0.6993
4410 0.5818
4415 0.4861
4420 0.4068
4425 0.3457
4430 0.2946
4435 0.2529
4440 0.2188
4445 0.1898
4450 0.1651
4455 0.1442
4460 0.1277
4465 0.1125
4468 0.1039
4470 0.09985
4475 0.08845
4480 0.07894
4485 0.07005
4490 0.06371
4500 0.05058
4500 0.05033
4501 0.04963
4510 0.04133
4520 0.0349
4530 0.02846
12000 0.0000