3915 0.0000
3920 0.02916
3925 0.05813
3930 0.1216
3935 0.2695
3937 0.438
3940 0.6115
3945 1.282
3950 2.316
3955 3.412
3960 4.369
3961 4.508
3965 5.025
3970 5.41
3975 5.752
3980 6.323
3985 7.266
3990 8.602
3995 10.24
4000 12.01
4003 13.23
4005 13.76
4010 15.32
4015 16.53
4020 17.42
4025 18.08
4026 18.17
4030 18.66
4035 19.27
4040 20
4045 20.9
4050 21.96
4055 23.13
4060 24.36
4065 25.62
4070 26.84
4075 27.95
4080 28.91
4085 29.71
4087 30
4090 30.32
4095 30.79
4100 31.19
4101 31.25
4105 31.49
4110 31.76
4115 32.03
4120 32.34
4125 32.67
4130 33.07
4135 33.5
4140 33.98
4145 34.5
4150 35.04
4155 35.61
4160 36.19
4165 36.78
4170 37.33
4175 37.86
4180 38.39
4182 38.6
4185 38.89
4190 39.39
4195 39.87
4200 40.36
4202 40.56
4205 40.82
4210 41.29
4215 41.72
4220 42.13
4225 42.53
4230 42.93
4235 43.31
4240 43.69
4245 44.05
4250 44.38
4255 44.71
4260 45.03
4265 45.32
4270 45.6
4272 45.7
4275 45.87
4280 46.12
4285 46.35
4290 46.6
4295 46.82
4300 47.04
4303 47.15
4305 47.25
4310 47.49
4315 47.72
4320 47.96
4325 48.2
4330 48.47
4335 48.72
4340 49
4345 49.29
4350 49.57
4355 49.86
4360 50.14
4365 50.42
4370 50.69
4375 50.94
4380 51.17
4385 51.39
4390 51.58
4391 51.6
4393 51.67
4395 51.74
4400 51.87
4405 52.02
4410 52.13
4415 52.23
4420 52.3
4425 52.38
4430 52.45
4435 52.52
4440 52.59
4445 52.68
4450 52.79
4455 52.89
4460 53.03
4465 53.19
4468 53.32
4470 53.39
4475 53.6
4480 53.86
4485 54.1
4490 54.37
4495 54.66
4500 54.93
4500 54.94
4501 54.97
4505 55.19
4510 55.44
4515 55.65
4520 55.87
4525 56.07
4530 56.24
4535 56.38
4540 56.5
4540 56.51
4545 56.57
4550 56.62
4555 56.64
4560 56.64
4565 56.64
4568 56.61
4570 56.59
4575 56.53
4580 56.46
4585 56.41
4590 56.34
4595 56.26
4600 56.2
4605 56.14
4610 56.13
4614 56.11
4615 56.1
4627 56.1
4630 56.09
4635 56.13
4640 56.19
4641 56.2
4645 56.26
4650 56.34
4655 56.43
4660 56.57
4665 56.69
4670 56.81
4675 56.96
4679 57.11
4680 57.14
4685 57.35
4690 57.53
4695 57.72
4700 57.92
4705 58.11
4710 58.3
4715 58.48
4720 58.64
4721 58.67
4725 58.79
4730 58.93
4735 59.03
4740 59.13
4745 59.22
4750 59.25
4755 59.26
4760 59.23
4765 59.17
4768 59.12
4770 59.06
4775 58.89
4780 58.68
4785 58.44
4790 58.18
4795 57.87
4800 57.55
4805 57.18
4809 56.88
4810 56.82
4815 56.49
4820 56.19
4825 55.93
4825 55.9
4830 55.62
4835 55.35
4840 55.1
4845 54.9
4850 54.74
4855 54.65
4860 54.63
4865 54.64
4870 54.74
4875 54.9
4877 54.98
4880 55.16
4885 55.48
4890 55.81
4895 56.2
4900 56.59
4905 56.99
4910 57.34
4915 57.65
4920 57.84
4925 57.92
4930 57.84
4935 57.56
4935 57.52
4940 57.09
4945 56.43
4948 56.02
4950 55.62
4955 54.67
4960 53.62
4965 52.48
4970 51.35
4975 50.31
4980 49.4
4985 48.72
4990 48.32
4995 48.25
5000 48.58
5005 49.34
5010 50.6
5015 52.32
5020 54.3
5025 56.2
5030 57.3
5035 56.84
5040 54.35
5041 52.93
5045 49.56
5050 42.61
5055 34.43
5060 26.22
5065 19.07
5070 13.53
5075 9.498
5080 6.734
5085 4.81
5090 3.463
5092 3.04
5095 2.527
5100 1.857
5105 1.385
5110 1.054
5112 0.9316
5115 0.809
5120 0.6289
5125 0.4924
5130 0.3898
5135 0.3123
5140 0.2493
5145 0.2023
5150 0.1651
5155 0.1346
5160 0.1114
5165 0.09222
5170 0.07631
5175 0.06437
5180 0.05376
5185 0.0000
