5545 0.0000
5550 0.3172
5555 0.4291
5560 0.5764
5565 0.763
5570 1.001
5575 1.295
5580 1.665
5585 2.103
5588 2.417
5590 2.614
5595 3.222
5600 3.918
5605 4.701
5610 5.593
5611 5.756
5615 6.578
5620 7.64
5625 8.785
5630 10
5635 11.29
5640 12.61
5645 14
5650 15.42
5655 16.82
5660 18.27
5662 18.76
5665 19.73
5670 21.16
5675 22.63
5680 24.04
5685 25.33
5690 26.64
5693 27.34
5695 28
5700 29.39
5705 30.81
5710 32.22
5710 32.35
5715 33.63
5720 35
5725 36.33
5730 37.65
5735 38.91
5740 40.11
5745 41.25
5750 42.31
5755 43.29
5760 44.15
5765 44.93
5770 45.6
5774 46.02
5775 46.19
5780 46.69
5785 47.1
5790 47.45
5795 47.75
5800 47.99
5805 48.2
5808 48.31
5810 48.37
5812 48.43
5815 48.54
5820 48.71
5825 48.87
5830 49.06
5835 49.26
5840 49.5
5845 49.76
5850 50.08
5855 50.41
5860 50.81
5864 51.14
5865 51.24
5870 51.7
5875 52.22
5880 52.73
5885 53.27
5890 53.83
5895 54.36
5900 54.86
5905 55.35
5906 55.46
5910 55.81
5915 56.3
5920 56.73
5925 57.14
5930 57.49
5935 57.82
5940 58.07
5945 58.29
5950 58.46
5955 58.57
5957 58.61
5960 58.66
5965 58.71
5970 58.75
5972 58.75
5975 58.75
5980 58.74
5985 58.73
5990 58.73
5995 58.72
6000 58.75
6005 58.76
6010 58.79
6015 58.83
6017 58.86
6020 58.91
6025 58.96
6030 59.04
6035 59.1
6040 59.19
6045 59.25
6050 59.32
6055 59.36
6060 59.41
6065 59.41
6067 59.4
6074 59.38
6075 59.38
6080 59.31
6085 59.18
6090 59.05
6095 58.86
6100 58.65
6105 58.43
6110 58.18
6115 57.93
6120 57.68
6125 57.41
6130 57.13
6135 56.83
6135 56.83
6140 56.54
6145 56.27
6150 56.02
6155 55.79
6160 55.61
6165 55.45
6180 55.21
6185 55.2
6190 55.25
6195 55.33
6200 55.46
6200 55.46
6205 55.59
6210 55.77
6215 55.95
6220 56.16
6225 56.41
6230 56.65
6232 56.76
6235 56.87
6240 57.12
6245 57.35
6250 57.56
6255 57.76
6260 57.91
6262 57.96
6265 58.05
6270 58.17
6275 58.27
6280 58.33
6285 58.34
6290 58.33
6295 58.33
6300 58.25
6305 58.18
6310 58.07
6313 57.98
6315 57.94
6320 57.83
6325 57.69
6330 57.55
6335 57.42
6340 57.28
6345 57.15
6350 57.02
6355 56.88
6360 56.76
6365 56.65
6370 56.54
6374 56.49
6375 56.47
6380 56.38
6384 56.32
6385 56.31
6390 56.23
6395 56.16
6400 56.12
6405 56.06
6410 56.01
6420 55.88
6425 55.82
6430 55.74
6435 55.66
6440 55.55
6445 55.43
6450 55.33
6451 55.31
6455 55.19
6460 55.05
6465 54.91
6470 54.74
6475 54.6
6480 54.43
6485 54.23
6490 54.05
6495 53.91
6500 53.74
6505 53.52
6508 53.41
6510 53.32
6515 53.14
6515 53.12
6520 52.98
6525 52.85
6530 52.7
6535 52.57
6545 52.39
6550 52.33
6555 52.29
6560 52.25
6565 52.23
6570 52.24
6575 52.29
6580 52.34
6585 52.4
6586 52.41
6590 52.45
6595 52.51
6600 52.59
6605 52.69
6610 52.8
6615 52.88
6620 52.97
6621 52.99
6625 53.03
6630 53.13
6635 53.2
6640 53.27
6645 53.31
6650 53.34
6655 53.35
6660 53.34
6665 53.34
6670 53.32
6675 53.28
6680 53.22
6685 53.14
6690 53.05
6690 53.04
6695 52.95
6700 52.84
6705 52.72
6710 52.61
6715 52.46
6720 52.33
6725 52.21
6730 52.06
6735 51.93
6740 51.81
6745 51.67
6750 51.56
6750 51.55
6755 51.44
6760 51.3
6765 51.2
6770 51.11
6777 50.99
6780 50.94
6785 50.85
6800 50.62
6805 50.56
6810 50.5
6815 50.45
6820 50.39
6825 50.35
6830 50.3
6835 50.24
6837 50.21
6840 50.17
6845 50.11
6850 50.05
6855 50.02
6860 49.98
6865 49.91
6870 49.84
6875 49.75
6880 49.66
6892 49.49
6895 49.44
6897 49.42
6900 49.38
6905 49.3
6910 49.21
6915 49.13
6920 49.04
6925 48.95
6930 48.87
6935 48.78
6940 48.7
6945 48.61
6950 48.54
6955 48.44
6960 48.37
6965 48.28
6968 48.22
6970 48.19
6980 48.04
6985 47.95
6990 47.88
6995 47.81
7000 47.73
7005 47.63
7010 47.54
7015 47.44
7020 47.35
7025 47.26
7035 47.09
7040 47
7045 46.88
7050 46.8
7052 46.76
7055 46.71
7060 46.57
7062 46.53
7065 46.47
7070 46.36
7075 46.27
7080 46.16
7085 46.06
7090 45.97
7095 45.85
7100 45.75
7105 45.63
7110 45.51
7115 45.39
7120 45.27
7125 45.17
7127 45.13
7130 45.06
7135 44.93
7140 44.81
7145 44.67
7150 44.54
7155 44.4
7160 44.25
7165 44.09
7170 43.95
7175 43.79
7180 43.62
7185 43.41
7190 43.19
7195 42.98
7200 42.73
7205 42.43
7210 42.13
7211 42.06
7215 41.78
7220 41.4
7225 40.98
7230 40.49
7235 39.98
7240 39.37
7245 38.74
7246 38.62
7250 38.03
7255 37.27
7260 36.45
7265 35.58
7270 34.63
7275 33.64
7280 32.58
7285 31.53
7285 31.43
7290 30.43
7295 29.31
7300 28.16
7305 27.01
7310 25.84
7315 24.65
7320 23.5
7325 22.36
7330 21.23
7335 20.14
7340 19.1
7345 18.06
7350 17.03
7355 16.06
7357 15.67
7360 15.1
7365 14.2
7370 13.34
7375 12.52
7380 11.74
7385 11.01
7390 10.32
7395 9.669
7400 9.063
7405 8.513
7410 8.006
7415 7.521
7420 7.067
7425 6.622
7430 6.194
7430 6.186
7435 5.793
7440 5.416
7445 5.065
7450 4.733
7451 4.644
7455 4.428
7460 4.14
7465 3.871
7470 3.625
7475 3.391
7480 3.172
7485 2.972
7490 2.783
7495 2.609
7500 2.446
7505 2.296
7510 2.156
7515 2.025
7520 1.905
7521 1.884
7525 1.792
7530 1.686
7535 1.589
7540 1.496
7545 1.408
7550 1.33
7555 1.257
7560 1.185
7565 1.121
7570 1.059
7575 1
7580 0.9464
7585 0.8945
7586 0.885
7590 0.8471
7595 0.804
7600 0.7615
7605 0.7217
7610 0.6853
7615 0.6516
7620 0.6205
7625 0.5916
7626 0.5851
7630 0.5648
7635 0.5391
7640 0.5134
7645 0.4886
7650 0.4655
7655 0.4438
7655 0.4421
7660 0.4238
7665 0.4038
7670 0.3851
7675 0.3673
7680 0.3504
7685 0.3344
7690 0.3196
7695 0.3061
7700 0.2918
7705 0.2796
7710 0.2679
7713 0.2597
7715 0.2558
7720 0.2457
7725 0.2348
7730 0.2252
7735 0.2164
7740 0.2069
7745 0.1986
7750 0.1911
7755 0.184
7760 0.1766
7765 0.1696
7770 0.1626
7775 0.1572
7780 0.1514
7781 0.1508
7785 0.146
7790 0.1399
7795 0.1346
7800 0.1301
7805 0.1248
7810 0.1203
7820 0.1118
7825 0.1074
7829 0.1043
7835 0.1001
7842 0.0959
7845 0.09438
7850 0.0000
