7300 0.0000
7305 0.04601
7315 0.05373
7325 0.06185
7330 0.06727
7335 0.07268
7340 0.07852
7345 0.08481
7350 0.09244
7355 0.1005
7357 0.1036
7360 0.1081
7365 0.117
7370 0.1268
7375 0.1369
7380 0.148
7385 0.1604
7390 0.1736
7395 0.1872
7400 0.2026
7405 0.2175
7410 0.2341
7415 0.2515
7420 0.2693
7425 0.2911
7430 0.3145
7430 0.315
7435 0.3397
7440 0.3669
7445 0.3963
7450 0.427
7451 0.4368
7455 0.461
7460 0.499
7465 0.5386
7470 0.5807
7475 0.6253
7480 0.6754
7485 0.7262
7490 0.7816
7495 0.8408
7500 0.9028
7505 0.9693
7510 1.039
7515 1.115
7520 1.193
7521 1.208
7525 1.276
7530 1.365
7535 1.455
7540 1.555
7545 1.66
7550 1.766
7555 1.878
7560 1.997
7565 2.123
7570 2.26
7575 2.401
7580 2.547
7585 2.705
7586 2.737
7590 2.865
7595 3.032
7600 3.205
7605 3.393
7610 3.586
7615 3.782
7620 3.976
7625 4.171
7626 4.219
7630 4.371
7635 4.59
7640 4.822
7645 5.062
7650 5.316
7655 5.577
7655 5.599
7660 5.846
7665 6.123
7670 6.413
7675 6.713
7680 7.016
7685 7.33
7690 7.647
7695 7.974
7700 8.321
7705 8.673
7710 9.015
7713 9.246
7715 9.358
7720 9.72
7725 10.07
7730 10.43
7735 10.81
7740 11.17
7745 11.54
7750 11.91
7755 12.3
7760 12.67
7765 13.04
7770 13.42
7775 13.8
7780 14.18
7781 14.22
7785 14.56
7790 14.95
7795 15.34
7800 15.73
7805 16.11
7810 16.49
7815 16.87
7820 17.24
7825 17.62
7829 17.93
7830 17.99
7835 18.34
7840 18.67
7842 18.82
7845 19
7850 19.34
7855 19.68
7860 20.03
7865 20.38
7870 20.73
7875 21.08
7880 21.4
7885 21.74
7887 21.89
7890 22.07
7895 22.4
7900 22.72
7905 23.01
7910 23.34
7915 23.64
7920 23.92
7925 24.21
7930 24.49
7935 24.75
7940 25
7945 25.23
7949 25.42
7950 25.48
7955 25.7
7960 25.92
7965 26.13
7970 26.32
7975 26.52
7980 26.71
7985 26.9
7990 27.08
7995 26.97
7999 26.89
8000 26.87
8005 27.02
8010 27.17
8015 27.31
8020 27.46
8025 27.59
8030 27.72
8035 27.84
8040 27.97
8045 28.08
8050 28.19
8052 28.23
8055 28.29
8060 28.39
8065 28.47
8070 28.55
8075 28.63
8078 28.67
8080 28.7
8085 28.77
8090 28.84
8095 28.9
8100 28.96
8105 29.01
8105 29.01
8110 29.07
8115 29.12
8120 29.18
8125 29.23
8130 29.27
8135 29.32
8140 29.36
8145 29.39
8150 29.42
8155 29.44
8160 29.47
8165 29.49
8170 29.5
8175 29.52
8180 29.54
8181 29.54
8185 29.55
8190 29.55
8195 29.56
8200 29.56
8205 29.56
8210 29.56
8215 29.56
8220 29.56
8223 29.55
8225 29.55
8230 29.53
8235 29.51
8240 29.5
8245 29.47
8250 29.45
8255 29.43
8260 29.4
8265 29.37
8270 29.34
8275 29.31
8280 29.27
8281 29.27
8285 29.26
8290 29.24
8295 29.23
8300 29.21
8305 29.19
8310 29.18
8315 29.15
8320 29.13
8320 29.13
8325 29.1
8330 29.07
8335 29.04
8340 29.01
8345 28.98
8346 28.97
8350 28.94
8355 28.91
8360 28.87
8363 28.85
8365 28.83
8370 28.79
8375 28.75
8380 28.71
8385 28.67
8390 28.62
8395 28.58
8400 28.53
8405 28.49
8410 28.44
8415 28.39
8420 28.34
8423 28.31
8425 28.3
8430 28.26
8435 28.22
8440 28.18
8445 28.14
8450 28.11
8455 28.06
8460 28.02
8465 27.98
8470 27.94
8475 27.9
8480 27.85
8482 27.84
8483 27.83
8485 27.8
8490 27.74
8495 27.68
8500 27.62
8505 27.54
8510 27.45
8515 27.37
8520 27.28
8525 27.2
8530 27.11
8533 27.06
8535 27.04
8540 26.99
8545 26.94
8550 26.89
8555 26.84
8559 26.8
8560 26.79
8565 26.7
8570 26.61
8575 26.52
8580 26.43
8585 26.34
8590 26.25
8595 26.16
8600 26.07
8605 25.98
8610 25.89
8610 25.89
8620 25.74
8625 25.66
8627 25.63
8630 25.58
8635 25.51
8640 25.43
8650 25.27
8655 25.2
8660 25.12
8663 25.07
8670 24.95
8680 24.77
8685 24.68
8690 24.6
8700 24.42
8705 24.33
8715 24.15
8723 24.01
8725 23.97
8735 23.81
8745 23.64
8755 23.47
8759 23.4
8763 23.33
8765 23.3
8775 23.13
8785 22.97
8795 22.8
8802 22.68
8820 22.36
8825 22.27
8835 22.09
8843 21.95
8850 21.81
8860 21.61
8870 21.41
8875 21.31
8880 21.21
8890 21.01
8900 20.81
8901 20.78
8925 20.34
8938 20.1
8940 20.06
8948 19.92
8965 19.59
8975 19.4
9000 18.91
9012 18.73
9040 18.3
9050 18.15
9060 17.99
9085 17.57
9104 17.25
9115 17.09
9135 16.81
9136 16.8
9155 16.51
9160 16.43
9185 16.01
9205 15.68
9230 15.25
9260 14.75
9271 14.56
9305 14
9319 13.77
9340 13.41
9359 13.08
9363 13.01
9370 12.89
9400 12.35
9402 12.31
9445 11.55
9480 10.91
9490 10.72
9500 10.55
9500 10.54
9526 10.16
9558 9.714
9563 9.653
9600 9.149
9602 9.124
9610 9.005
9635 8.645
9656 8.346
9661 8.274
9675 8.078
9689 7.884
9723 7.385
9735 7.218
9752 6.976
9771 6.693
10000 0.000
