3000 0.0
8859 0.01134
8862 0.02395
8868 0.05161
8871 0.1005
8874 0.145
8877 0.1914
8880 0.2366
8883 0.317
8886 0.3543
8889 0.3801
8892 0.4089
8895 0.426
8901 0.4351
8901 0.4366
8904 0.4723
8907 0.4855
8910 0.5115
8913 0.5306
8916 0.5718
8919 0.599
8922 0.6271
8925 0.69
8928 0.7221
8931 0.7461
8934 0.8214
8937 0.8677
8938 0.89
8940 0.9374
8943 1.01
8946 1.085
8948 1.13
8949 1.166
8952 1.273
8955 1.412
8958 1.524
8961 1.666
8964 1.823
8967 2.028
8970 2.217
8973 2.46
8975 2.623
8976 2.732
8979 3.016
8982 3.363
8985 3.727
8988 4.162
8991 4.619
8994 5.121
8997 5.689
9000 6.343
9000 6.344
9003 7.025
9006 7.821
9009 8.584
9012 9.398
9012 9.503
9015 10.27
9018 11.19
9021 12.01
9024 12.89
9027 13.7
9030 14.39
9033 15.09
9036 15.68
9039 16.08
9042 16.42
9045 16.68
9048 16.86
9051 16.98
9054 17.05
9057 17.06
9060 17.02
9060 17.01
9063 16.94
9066 16.83
9069 16.7
9072 16.56
9075 16.42
9078 16.26
9081 16.11
9084 15.98
9087 15.85
9090 15.74
9093 15.63
9096 15.54
9099 15.44
9102 15.39
9104 15.35
9105 15.33
9108 15.29
9111 15.28
9114 15.26
9117 15.25
9120 15.27
9123 15.26
9126 15.26
9129 15.32
9132 15.33
9135 15.37
9136 15.38
9138 15.4
9141 15.44
9144 15.47
9147 15.49
9150 15.52
9153 15.56
9156 15.56
9159 15.58
9160 15.59
9162 15.6
9165 15.59
9168 15.57
9171 15.54
9174 15.52
9177 15.46
9180 15.41
9183 15.38
9186 15.3
9189 15.21
9192 15.12
9195 15.03
9198 14.93
9201 14.82
9204 14.68
9205 14.64
9207 14.55
9210 14.38
9213 14.23
9216 14.08
9219 13.89
9222 13.69
9225 13.49
9228 13.28
9231 13.04
9234 12.79
9237 12.55
9240 12.26
9243 11.95
9246 11.67
9249 11.34
9252 11
9255 10.69
9258 10.33
9261 9.927
9264 9.577
9267 9.203
9270 8.793
9271 8.653
9273 8.427
9276 8.068
9279 7.661
9282 7.262
9285 6.919
9288 6.544
9291 6.15
9294 5.797
9297 5.451
9300 5.086
9303 4.78
9306 4.493
9309 4.161
9312 3.858
9315 3.614
9318 3.341
9319 3.279
9321 3.092
9324 2.867
9327 2.651
9330 2.429
9333 2.255
9336 2.09
9339 1.922
9342 1.762
9345 1.638
9348 1.493
9351 1.377
9354 1.275
9357 1.171
9359 1.097
9360 1.067
9363 0.991
9363 0.9804
9366 0.9137
9369 0.8338
9372 0.7731
9375 0.7173
9378 0.6542
9381 0.6015
9384 0.561
9387 0.5156
9390 0.4769
9393 0.4431
9396 0.414
9399 0.3771
9402 0.3524
9402 0.3502
9405 0.3329
9406 0.3243
9408 0.3073
9411 0.2874
9414 0.2593
9417 0.2429
9420 0.2271
9423 0.2188
9426 0.1999
9429 0.1901
9432 0.1731
9435 0.1665
9438 0.1553
9441 0.1481
9444 0.1371
9445 0.1274
9447 0.1026
9450 0.06227
12000 0.0