3000 0.00
4570 0.01295
4580 0.01943
4590 0.02914
4595 0.03627
4600 0.04405
4605 0.05376
4610 0.06672
4614 0.08047
4615 0.08357
4620 0.1063
4625 0.1367
4627 0.1544
4630 0.1789
4635 0.2359
4640 0.3149
4641 0.3307
4645 0.4263
4650 0.5855
4655 0.8146
4660 1.157
4665 1.669
4670 2.455
4675 3.678
4679 5.348
4680 5.602
4685 8.585
4690 13.06
4695 19.3
4700 27.31
4705 36.13
4710 44.11
4715 49.92
4720 52.72
4721 52.78
4725 53.16
4730 52.26
4735 50.99
4740 49.96
4745 49.38
4750 49.31
4755 49.67
4760 50.35
4765 51.28
4768 51.81
4770 52.27
4775 53.31
4780 54.27
4785 55.12
4790 55.83
4795 56.37
4800 56.78
4805 57.06
4809 57.22
4810 57.26
4815 57.41
4820 57.5
4825 57.56
4825 57.56
4830 57.63
4835 57.69
4840 57.72
4850 57.8
4855 57.8
4860 57.8
4865 57.75
4870 57.68
4875 57.64
4877 57.61
4880 57.53
4885 57.43
4890 57.33
4895 57.23
4900 57.11
4905 57.03
4910 56.93
4915 56.85
4920 56.75
4925 56.65
4930 56.55
4935 56.41
4935 56.4
4940 56.31
4945 56.18
4948 56.13
4950 56.08
4955 56
4960 55.94
4965 55.89
4970 55.8
4975 55.57
4980 55.1
4985 54.12
4990 52.48
4995 49.83
5000 46.11
5005 41.26
5010 35.63
5015 29.79
5020 24.1
5025 18.9
5030 14.6
5035 11.26
5040 8.723
5041 8.127
5045 6.71
5050 5.097
5055 3.872
5060 2.947
5065 2.249
5070 1.733
5075 1.344
5080 1.059
5085 0.8388
5090 0.6654
5092 0.6052
5095 0.5324
5100 0.4285
5105 0.3478
5110 0.2855
5112 0.2604
5115 0.2352
5120 0.1955
5125 0.163
5130 0.1372
5135 0.1167
5140 0.09946
5145 0.08355
5150 0.07229
5155 0.06169
5160 0.05373
5170 0.04048
5180 0.03119
12000 0.0