3000 0.0
6760 0.01325
6770 0.02091
6775 0.02747
6777 0.03109
6780 0.03675
6785 0.04984
6790 0.07163
6795 0.1021
6800 0.1526
6805 0.2335
6810 0.3673
6815 0.5973
6820 0.9971
6825 1.698
6830 2.932
6835 4.932
6837 6.165
6840 7.852
6845 11.65
6850 16.05
6855 20.76
6860 25.42
6865 30.07
6870 34.76
6875 39.21
6880 43.04
6885 45.87
6890 47.31
6892 47.36
6895 47.46
6897 47.2
6900 46.73
6905 45.67
6910 44.7
6915 44.14
6920 44.1
6925 44.56
6930 45.41
6935 46.42
6940 47.38
6945 48.1
6950 48.45
6955 48.43
6960 48.09
6965 47.56
6968 47.2
6970 47
6975 46.54
6980 46.26
6985 46.14
6990 46.17
6995 46.2
7000 46.15
7005 45.81
7010 45.05
7015 43.77
7020 42.02
7025 39.93
7030 37.69
7035 35.59
7040 33.69
7045 32.1
7050 30.69
7052 30.1
7055 29.21
7060 27.24
7062 26.02
7065 24.42
7070 20.63
7075 16.22
7080 11.81
7085 8.025
7090 5.194
7095 3.286
7100 2.082
7105 1.333
7110 0.8675
7115 0.5776
7120 0.3925
7125 0.2723
7127 0.2477
7130 0.1919
7135 0.1384
7140 0.1008
7145 0.07462
7150 0.05587
7155 0.04256
7160 0.03272
7165 0.02633
12000 0.0