3000 0.000
8209 0.1926
8223 0.2142
8281 0.2992
8302 0.3299
8320 0.417
8346 0.5446
8355 0.5851
8363 0.6476
8388 0.8429
8391 0.8906
8394 0.923
8397 0.8715
8400 1.041
8403 0.9927
8406 1.115
8409 1.075
8412 1.121
8415 1.147
8418 1.183
8421 1.293
8423 1.357
8424 1.379
8427 1.452
8430 1.622
8433 1.654
8436 1.851
8439 2.033
8442 2.161
8445 2.329
8448 2.669
8451 2.869
8454 3.266
8457 3.632
8460 3.998
8463 4.557
8466 5.187
8469 5.706
8472 6.468
8475 7.277
8478 8.149
8481 9.105
8482 9.321
8483 9.77
8484 10.26
8487 11.34
8490 12.52
8493 13.79
8496 14.97
8499 16.18
8500 16.58
8502 17.37
8505 18.46
8508 19.42
8511 20.28
8514 21.11
8517 21.79
8520 22.35
8523 22.89
8526 23.23
8529 23.44
8532 23.76
8533 23.81
8535 23.9
8538 24
8541 24.18
8544 24.3
8547 24.42
8550 24.32
8553 24.45
8556 24.4
8559 24.42
8559 24.42
8562 24.41
8565 24.35
8568 24.29
8571 24.29
8574 24.23
8577 24.11
8580 23.99
8583 23.86
8586 23.68
8589 23.46
8592 23.2
8595 22.94
8598 22.56
8601 22.02
8604 21.44
8607 20.86
8610 20.14
8610 20.07
8613 19.21
8616 18.39
8619 17.31
8622 16.14
8625 15.09
8627 14.25
8628 13.94
8631 12.72
8634 11.55
8637 10.5
8640 9.335
8643 8.4
8646 7.514
8649 6.673
8652 5.901
8655 5.27
8658 4.651
8661 4.058
8663 3.776
8664 3.666
8667 3.228
8670 2.842
8673 2.545
8676 2.292
8679 2.063
8682 1.816
8685 1.684
8691 1.385
8703 0.9859
8723 0.7962
8755 0.5031
8759 0.481
8763 0.46
8802 0.2688
8806 0.2477
12000 0.0