3000 0.0
5465 0.01733
5480 0.02466
5490 0.03532
5495 0.04331
5500 0.05529
5505 0.07062
5510 0.09327
5515 0.1266
5520 0.1752
5525 0.2465
5530 0.3571
5535 0.527
5540 0.8022
5543 1.112
5545 1.255
5550 1.972
5555 3.127
5560 4.949
5565 7.648
5570 11.51
5575 16.48
5580 22.36
5585 28.5
5588 32.11
5590 34.38
5595 39.88
5600 44.59
5605 48.32
5610 50.89
5611 51.1
5615 52.14
5620 52.19
5625 51.29
5630 49.81
5635 48.1
5640 46.53
5645 45.32
5650 44.59
5655 44.41
5660 44.77
5662 45.07
5665 45.63
5670 46.9
5675 48.59
5680 50.37
5685 52.15
5690 53.89
5693 54.73
5695 55.53
5700 56.94
5705 58.03
5710 58.67
5710 58.69
5715 58.91
5720 58.83
5725 58.51
5730 58.08
5735 57.66
5740 57.28
5745 57.04
5750 56.91
5755 56.92
5760 57.01
5765 57.16
5770 57.32
5774 57.4
5775 57.43
5780 57.47
5785 57.39
5790 57.21
5795 56.89
5800 56.42
5805 55.72
5808 55.05
5810 54.64
5812 54.15
5815 53.01
5820 50.54
5825 46.99
5830 42.33
5835 36.67
5840 30.51
5845 24.42
5850 18.91
5855 14.32
5860 10.66
5864 8.523
5865 7.864
5870 5.848
5875 4.367
5880 3.32
5885 2.558
5890 1.993
5895 1.59
5900 1.297
5905 1.079
5906 1.037
5910 0.902
5915 0.7534
5920 0.6345
5925 0.536
5930 0.4559
5935 0.389
5940 0.3312
5945 0.2814
5950 0.2381
5955 0.1988
5957 0.1844
5960 0.1647
5965 0.1353
5970 0.1097
5972 0.1025
5975 0.08815
5980 0.07179
5985 0.05806
5990 0.0463
5995 0.0378
6000 0.03062
12000 0.0