3000 0.0
7809 0.00923
7829 0.01269
7833 0.01333
7842 0.01623
7845 0.01706
7854 0.02116
7863 0.02598
7869 0.02968
7875 0.03411
7881 0.04002
7887 0.04627
7887 0.04653
7890 0.04995
7893 0.05361
7896 0.05764
7899 0.06278
7902 0.06791
7905 0.07302
7908 0.08034
7911 0.08728
7914 0.09457
7917 0.1037
7920 0.1135
7923 0.1233
7926 0.1342
7929 0.1477
7932 0.1607
7935 0.1741
7938 0.1929
7941 0.2117
7944 0.2308
7947 0.255
7949 0.2712
7950 0.282
7953 0.3089
7956 0.3401
7959 0.3807
7962 0.4211
7965 0.4615
7968 0.5201
7971 0.5786
7974 0.637
7977 0.7167
7980 0.8071
7983 0.8972
7986 1.005
7989 1.149
7992 1.293
7995 1.436
7998 2.442
7999 2.498
8000 2.581
8001 2.65
8004 2.78
8007 2.896
8010 3.093
8013 3.405
8016 3.706
8019 4.11
8022 4.545
8025 4.937
8028 5.58
8031 6.265
8034 6.859
8037 7.823
8040 8.871
8043 9.65
8046 10.86
8049 12.23
8052 13.45
8052 13.51
8055 14.84
8058 16.34
8061 17.72
8064 19.09
8067 20.4
8070 21.73
8073 22.77
8076 23.72
8078 24.2
8079 24.46
8082 25.15
8085 25.67
8088 26.15
8091 26.45
8094 26.64
8097 26.78
8100 26.72
8103 26.93
8105 26.97
8106 26.98
8109 26.96
8112 26.95
8115 27.03
8118 27.01
8121 27.03
8124 27.05
8127 27.03
8130 27.07
8136 27.09
8139 27.21
8142 27.22
8145 27.15
8148 27.29
8151 27.27
8154 27.15
8157 27.33
8160 27.22
8163 27.13
8166 27.19
8169 27.1
8172 27.2
8175 27.02
8178 27
8181 27
8181 27
8184 26.91
8187 26.99
8190 26.95
8193 26.94
8196 26.96
8199 26.91
8202 26.91
8205 26.9
8208 26.78
8211 26.8
8214 26.84
8217 26.72
8220 26.51
8223 26.28
8223 26.28
8226 26.1
8229 25.61
8232 25.09
8235 24.42
8238 23.75
8241 22.69
8244 21.72
8247 20.63
8250 19.23
8253 17.94
8256 16.49
8259 14.98
8262 13.66
8265 12.39
8268 11.03
8271 9.984
8274 8.873
8277 7.835
8280 6.991
8281 6.756
8283 6.254
8286 5.525
8289 4.998
8292 4.529
8295 3.984
8298 3.673
8301 3.342
8304 3.157
8307 2.695
8310 2.592
8313 2.407
8316 2.199
8319 2.025
8320 2.008
8322 1.963
8325 1.752
8328 1.526
8346 1.12
8351 1.021
8363 0.8926
8374 0.774
8391 0.3579
12000 0.0